%YAML 1.1
%TAG !u! tag:unity3d.com,2011:
--- !u!114 &11400000
MonoBehaviour:
  m_ObjectHideFlags: 0
  m_CorrespondingSourceObject: {fileID: 0}
  m_PrefabInstance: {fileID: 0}
  m_PrefabAsset: {fileID: 0}
  m_GameObject: {fileID: 0}
  m_Enabled: 1
  m_EditorHideFlags: 0
  m_Script: {fileID: 11500000, guid: 9d1514134bc4fbd41bb739b1b9a49231, type: 3}
  m_Name: Ledge RuleTile
  m_EditorClassIdentifier: 
  m_DefaultSprite: {fileID: -731061037, guid: d2389fad68266b94884296ac614501e7, type: 3}
  m_DefaultGameObject: {fileID: 8003618371298104618, guid: 792bbf28c6f99304f9b59ac5360641af, type: 3}
  m_DefaultColliderType: 1
  m_TilingRules:
  - m_Id: 0
    m_Sprites:
    - {fileID: 980526634, guid: d2389fad68266b94884296ac614501e7, type: 3}
    m_GameObject: {fileID: 8003618371298104618, guid: 792bbf28c6f99304f9b59ac5360641af, type: 3}
    m_MinAnimationSpeed: 1
    m_MaxAnimationSpeed: 1
    m_PerlinScale: 0.5
    m_Output: 0
    m_ColliderType: 1
    m_RandomTransform: 0
    m_Neighbors: 010000000100000001000000020000000200000002000000
    m_NeighborPositions:
    - {x: 0, y: -1, z: 0}
    - {x: 1, y: -1, z: 0}
    - {x: 1, y: 0, z: 0}
    - {x: -1, y: 0, z: 0}
    - {x: -1, y: 1, z: 0}
    - {x: 0, y: 1, z: 0}
    m_RuleTransform: 0
  - m_Id: 1
    m_Sprites:
    - {fileID: -1705006687, guid: d2389fad68266b94884296ac614501e7, type: 3}
    m_GameObject: {fileID: 8003618371298104618, guid: 792bbf28c6f99304f9b59ac5360641af, type: 3}
    m_MinAnimationSpeed: 1
    m_MaxAnimationSpeed: 1
    m_PerlinScale: 0.5
    m_Output: 0
    m_ColliderType: 1
    m_RandomTransform: 0
    m_Neighbors: 010000000100000001000000020000000200000002000000
    m_NeighborPositions:
    - {x: -1, y: 0, z: 0}
    - {x: -1, y: -1, z: 0}
    - {x: 0, y: -1, z: 0}
    - {x: 0, y: 1, z: 0}
    - {x: 1, y: 1, z: 0}
    - {x: 1, y: 0, z: 0}
    m_RuleTransform: 0
  - m_Id: 2
    m_Sprites:
    - {fileID: -477086171, guid: d2389fad68266b94884296ac614501e7, type: 3}
    m_GameObject: {fileID: 8003618371298104618, guid: 792bbf28c6f99304f9b59ac5360641af, type: 3}
    m_MinAnimationSpeed: 1
    m_MaxAnimationSpeed: 1
    m_PerlinScale: 0.5
    m_Output: 0
    m_ColliderType: 1
    m_RandomTransform: 0
    m_Neighbors: 0100000001000000010000000200000002000000
    m_NeighborPositions:
    - {x: 0, y: 1, z: 0}
    - {x: -1, y: 1, z: 0}
    - {x: -1, y: 0, z: 0}
    - {x: 0, y: -1, z: 0}
    - {x: 1, y: 0, z: 0}
    m_RuleTransform: 0
  - m_Id: 3
    m_Sprites:
    - {fileID: 1767262526, guid: d2389fad68266b94884296ac614501e7, type: 3}
    m_GameObject: {fileID: 8003618371298104618, guid: 792bbf28c6f99304f9b59ac5360641af, type: 3}
    m_MinAnimationSpeed: 1
    m_MaxAnimationSpeed: 1
    m_PerlinScale: 0.5
    m_Output: 0
    m_ColliderType: 1
    m_RandomTransform: 0
    m_Neighbors: 010000000100000001000000020000000200000002000000
    m_NeighborPositions:
    - {x: 0, y: 1, z: 0}
    - {x: 1, y: 1, z: 0}
    - {x: 1, y: 0, z: 0}
    - {x: -1, y: 0, z: 0}
    - {x: -1, y: -1, z: 0}
    - {x: 0, y: -1, z: 0}
    m_RuleTransform: 0
  - m_Id: 4
    m_Sprites:
    - {fileID: 1811266034, guid: d2389fad68266b94884296ac614501e7, type: 3}
    - {fileID: 226049109, guid: d2389fad68266b94884296ac614501e7, type: 3}
    m_GameObject: {fileID: 8003618371298104618, guid: 792bbf28c6f99304f9b59ac5360641af, type: 3}
    m_MinAnimationSpeed: 1
    m_MaxAnimationSpeed: 1
    m_PerlinScale: 0.5
    m_Output: 1
    m_ColliderType: 1
    m_RandomTransform: 0
    m_Neighbors: 020000000100000001000000010000000100000001000000
    m_NeighborPositions:
    - {x: 0, y: -1, z: 0}
    - {x: -1, y: 1, z: 0}
    - {x: 0, y: 1, z: 0}
    - {x: 1, y: 1, z: 0}
    - {x: -1, y: 0, z: 0}
    - {x: 1, y: 0, z: 0}
    m_RuleTransform: 0
  - m_Id: 5
    m_Sprites:
    - {fileID: -1748136779, guid: d2389fad68266b94884296ac614501e7, type: 3}
    m_GameObject: {fileID: 8003618371298104618, guid: 792bbf28c6f99304f9b59ac5360641af, type: 3}
    m_MinAnimationSpeed: 1
    m_MaxAnimationSpeed: 1
    m_PerlinScale: 0.5
    m_Output: 0
    m_ColliderType: 1
    m_RandomTransform: 0
    m_Neighbors: 020000000100000001000000010000000100000001000000
    m_NeighborPositions:
    - {x: -1, y: 0, z: 0}
    - {x: 1, y: -1, z: 0}
    - {x: 1, y: 0, z: 0}
    - {x: 1, y: 1, z: 0}
    - {x: 0, y: -1, z: 0}
    - {x: 0, y: 1, z: 0}
    m_RuleTransform: 2
  - m_Id: 6
    m_Sprites:
    - {fileID: 91791025, guid: d2389fad68266b94884296ac614501e7, type: 3}
    - {fileID: 1192210632, guid: d2389fad68266b94884296ac614501e7, type: 3}
    m_GameObject: {fileID: 8003618371298104618, guid: 792bbf28c6f99304f9b59ac5360641af, type: 3}
    m_MinAnimationSpeed: 1
    m_MaxAnimationSpeed: 1
    m_PerlinScale: 0.5
    m_Output: 1
    m_ColliderType: 1
    m_RandomTransform: 0
    m_Neighbors: 010000000100000001000000010000000100000002000000
    m_NeighborPositions:
    - {x: -1, y: -1, z: 0}
    - {x: 0, y: -1, z: 0}
    - {x: 1, y: -1, z: 0}
    - {x: -1, y: 0, z: 0}
    - {x: 1, y: 0, z: 0}
    - {x: 0, y: 1, z: 0}
    m_RuleTransform: 0
  - m_Id: 8
    m_Sprites:
    - {fileID: -775346701, guid: d2389fad68266b94884296ac614501e7, type: 3}
    m_GameObject: {fileID: 8003618371298104618, guid: 792bbf28c6f99304f9b59ac5360641af, type: 3}
    m_MinAnimationSpeed: 1
    m_MaxAnimationSpeed: 1
    m_PerlinScale: 0.5
    m_Output: 0
    m_ColliderType: 1
    m_RandomTransform: 0
    m_Neighbors: 0100000001000000010000000200000001000000010000000100000001000000
    m_NeighborPositions:
    - {x: -1, y: 0, z: 0}
    - {x: -1, y: 1, z: 0}
    - {x: 0, y: 1, z: 0}
    - {x: 1, y: 1, z: 0}
    - {x: 1, y: 0, z: 0}
    - {x: 1, y: -1, z: 0}
    - {x: 0, y: -1, z: 0}
    - {x: -1, y: -1, z: 0}
    m_RuleTransform: 2
  - m_Id: 9
    m_Sprites:
    - {fileID: 903293496, guid: d2389fad68266b94884296ac614501e7, type: 3}
    m_GameObject: {fileID: 8003618371298104618, guid: 792bbf28c6f99304f9b59ac5360641af, type: 3}
    m_MinAnimationSpeed: 1
    m_MaxAnimationSpeed: 1
    m_PerlinScale: 0.5
    m_Output: 0
    m_ColliderType: 1
    m_RandomTransform: 0
    m_Neighbors: 0200000001000000010000000100000001000000010000000100000001000000
    m_NeighborPositions:
    - {x: -1, y: -1, z: 0}
    - {x: -1, y: 0, z: 0}
    - {x: -1, y: 1, z: 0}
    - {x: 0, y: 1, z: 0}
    - {x: 1, y: 1, z: 0}
    - {x: 1, y: 0, z: 0}
    - {x: 1, y: -1, z: 0}
    - {x: 0, y: -1, z: 0}
    m_RuleTransform: 2
  - m_Id: 7
    m_Sprites:
    - {fileID: -731061037, guid: d2389fad68266b94884296ac614501e7, type: 3}
    - {fileID: 1213268678, guid: d2389fad68266b94884296ac614501e7, type: 3}
    - {fileID: -421455660, guid: d2389fad68266b94884296ac614501e7, type: 3}
    - {fileID: 864062729, guid: d2389fad68266b94884296ac614501e7, type: 3}
    m_GameObject: {fileID: 8003618371298104618, guid: 792bbf28c6f99304f9b59ac5360641af, type: 3}
    m_MinAnimationSpeed: 1
    m_MaxAnimationSpeed: 1
    m_PerlinScale: 0.66
    m_Output: 1
    m_ColliderType: 1
    m_RandomTransform: 5
    m_Neighbors: 
    m_NeighborPositions:
    - {x: -1, y: 1, z: 0}
    - {x: 0, y: 1, z: 0}
    - {x: 1, y: 1, z: 0}
    - {x: -1, y: 0, z: 0}
    - {x: 1, y: 0, z: 0}
    - {x: -1, y: -1, z: 0}
    - {x: 0, y: -1, z: 0}
    - {x: 1, y: -1, z: 0}
    m_RuleTransform: 0
